Un análisis de datos de inmigración en Santiago de Chile utilizando técnicas de aprendizaje automático | StatCity
…
visas2019STG <- left_join(visas2019STG, STGgeo)

3) Analysis Inicial

Nacionalidades

Los datos originales muestran que en 2019 en la provincia de Santiago 156.260 inmigrantes llegaron. Estos inmigrantes se dividían en 76 nacionalidades

Sin embargo, cuando filtré los datos, usando los pasos anteriores, esta cifra se reducía a 98.655 divididos en 76 nacionalidades. Venezolanos represetan 58.80% con 58.009 llegadas.

En los 10 principales países para llegadas, 8 son de Sudamérica o Centroamérica, con China y Los Estados Unidos las únicas excepciónes. También se nota que 6 de esos 10 países hablan Español, con Brasil, Haiti, Los Estados Unidos y China los que hablan otros idiomas.

visas2019STG %>% group_by(PAÍS) %>% count() %>% arrange(-n)

## # A tibble: 75 x 2
## # Groups:   PAÍS [75]
##    PAÍS               n
##    <fct>          <int>
##  1 Venezuela      58009
##  2 Perú           11474
##  3 Colombia        8465
##  4 Haití           7135
##  5 Bolivia         2424
##  6 Ecuador         2119
##  7 Argentina       1988
##  8 Brasil          1335
##  9 China            923
## 10 Estados Unidos   564
## # … with 65 more rows

Donde viven

Se expone que la comuna mas popular es Santiago con 30.207 inmigrantes en 2019. Esto no es soprendiente ya que Santiago es el centro de la ciudad, donde hay más accesso a servicios, oportunidades de trabajo, y alojamiento. Sin embargo hay que tener en cuenta que este base de datos solo muestra la comuna de residencia al momento de realizar su solicitud para su visa. Es posible que un inmigrante se mueva a un sector diferente de la ciudad cuando se haya acostumbrado y ya tenga un red de apoyo.

comuna_count <- visas2019STG %>% group_by(nombre_comuna) %>% count() %>% arrange(-n)

comuna_count

## # A tibble: 32 x 2
## # Groups:   nombre_comuna [32]
##    nombre_comuna        n
##    <chr>            <int>
##  1 Santiago         30207
##  2 Estación Central  8080
##  3 Independencia     7291
##  4 Quinta Normal     4343
##  5 San Miguel        4124
##  6 Recoleta          3871
##  7 Ñuñoa             3736
##  8 Las Condes        3591
##  9 La Florida        3571
## 10 Maipú             2780
## # … with 22 more rows
…
Distribución de los venezolanos

En este mapa se expone que los venezolanos se concentran con 21.387 en la comuna de Santiago. Esta cifra corresponde a 36.88% de los venezolanos que llegaron en 2019. Estacion Central y Independencia son las comunas con el segundo y el tercer mayor número de llegadas venezolanos. En relación al sector orriente, hubieron 1.998 llegadas venezolanos.

venezuela_count <- visas2019STG %>% filter(PAÍS == 'Venezuela') %>% group_by(nombre_comuna) %>% count() %>% arrange(-n)

venezuela_count

## # A tibble: 32 x 2
## # Groups:   nombre_comuna [32]
##    nombre_comuna        n
##    <chr>            <int>
##  1 Santiago         21387
##  2 Estación Central  5628
##  3 Independencia     4710
##  4 San Miguel        3318
##  5 Quinta Normal     2805
##  6 Ñuñoa             2622
##  7 La Florida        2339
##  8 Macul             1575
##  9 Maipú             1537
## 10 La Cisterna       1237
## # … with 22 more rows
…
Este mapa destaca que la comuna mas popular para haitianos de 2019 fue Quilicura con 984 llegadas, o sea 13.79% del 7.135 haitianos que llegaron en 2019. Estación Central tambien contó con muchos haitianos con 758 haitianos (10.62%), asímismo Santiago Centro tuvo muchos llegados haitianos con 523 (7.33%). Es interesante anotar la falta de haitianos en el sector oriente con solo 25 haitianos de los que llegaron en 2019.

haitiano_count <- visas2019STG %>% filter(PAÍS == 'Haití') %>% group_by(nombre_comuna) %>% count() %>% arrange(-n)

visas2019STG %>% filter(PAÍS == 'Haití') %>% count()

## # A tibble: 1 x 1
##       n
##   <int>
## 1  7135

haitiano_count

## # A tibble: 32 x 2
## # Groups:   nombre_comuna [32]
##    nombre_comuna           n
##    <chr>               <int>
##  1 Quilicura             984
##  2 Estación Central      758
##  3 Santiago              523
##  4 Lo Espejo             426
##  5 Recoleta              375
##  6 Pedro Aguirre Cerda   367
##  7 Cerro Navia           363
##  8 Conchalí              280
##  9 Quinta Normal         252
## 10 El Bosque             248
## # … with 22 more rows
…
Distribución de los estadounidenses

De los 564 estado unidenses que llegaron en 2019, 352 (62.41%) vivieron en el sector orriente. Como para los venezolanos y haitianos la comuna de Santiago Centro otro vez contó con un gran por ceinto de las llegadas con 80 personas (14.18%). Tambien es interesante ver que hay varios comunas donde no había llegadas de los estados unidos. En comparación a lo que hemos visto hasta ahora con los venezolanos y los haitanos esta es una tendencia nueva, con estos dos otros nacionalidades teniendo una presencia en cada comuna de la ciudad.

eeuu_count <- visas2019STG %>% filter(PAÍS == 'Estados Unidos') %>% group_by(nombre_comuna) %>% count() %>% arrange(-n)

eeuu_count

## # A tibble: 23 x 2
## # Groups:   nombre_comuna [23]
##    nombre_comuna        n
##    <chr>            <int>
##  1 Providencia        208
##  2 Las Condes         110
##  3 Santiago            80
##  4 Maipú               57
##  5 Ñuñoa               30
##  6 Vitacura            21
##  7 Lo Barnechea        13
##  8 Estación Central    11
##  9 Macul                5
## 10 Independencia        4
## # … with 13 more rows
…
## # A tibble: 1 x 1
##       n
##   <int>
## 1 11474

visas2019STG %>% filter(PAÍS == 'Perú' & nombre_comuna %in% c('Providencia', "Las Condes", 'Vitacura', 'Lo Barnechea')) %>% count()

## # A tibble: 1 x 1
##       n
##   <int>
## 1   855

peruano_count

## # A tibble: 32 x 2
## # Groups:   nombre_comuna [32]
##    nombre_comuna        n
##    <chr>            <int>
##  1 Santiago          2785
##  2 Recoleta          1272
##  3 Independencia     1092
##  4 Estación Central   634
##  5 Quinta Normal      585
##  6 Conchalí           475
##  7 Peñalolén          415
##  8 Las Condes         373
##  9 La Florida         335
## 10 Lo Prado           320
## # … with 22 more rows
…
